type,name,tbl_name,rootpage,sql
table,django_migrations,django_migrations,2,"CREATE TABLE ""django_migrations"" (""id"" integer NOT NULL PRIMARY KEY AUTOINCREMENT, ""app"" varchar(255) NOT NULL, ""name"" varchar(255) NOT NULL, ""applied"" datetime NOT NULL)"
table,sqlite_sequence,sqlite_sequence,3,"CREATE TABLE sqlite_sequence(name,seq)"
table,auth_group_permissions,auth_group_permissions,9,"CREATE TABLE ""auth_group_permissions"" (""id"" integer NOT NULL PRIMARY KEY AUTOINCREMENT, ""group_id"" integer NOT NULL REFERENCES ""auth_group"" (""id"") DEFERRABLE INITIALLY DEFERRED, ""permission_id"" integer NOT NULL REFERENCES ""auth_permission"" (""id"") DEFERRABLE INITIALLY DEFERRED)"
table,auth_user_groups,auth_user_groups,12,"CREATE TABLE ""auth_user_groups"" (""id"" integer NOT NULL PRIMARY KEY AUTOINCREMENT, ""user_id"" integer NOT NULL REFERENCES ""auth_user"" (""id"") DEFERRABLE INITIALLY DEFERRED, ""group_id"" integer NOT NULL REFERENCES ""auth_group"" (""id"") DEFERRABLE INITIALLY DEFERRED)"
table,auth_user_user_permissions,auth_user_user_permissions,13,"CREATE TABLE ""auth_user_user_permissions"" (""id"" integer NOT NULL PRIMARY KEY AUTOINCREMENT, ""user_id"" integer NOT NULL REFERENCES ""auth_user"" (""id"") DEFERRABLE INITIALLY DEFERRED, ""permission_id"" integer NOT NULL REFERENCES ""auth_permission"" (""id"") DEFERRABLE INITIALLY DEFERRED)"
index,auth_group_permissions_group_id_permission_id_0cd325b0_uniq,auth_group_permissions,16,"CREATE UNIQUE INDEX ""auth_group_permissions_group_id_permission_id_0cd325b0_uniq"" ON ""auth_group_permissions"" (""group_id"", ""permission_id"")"
index,auth_group_permissions_group_id_b120cbf9,auth_group_permissions,17,"CREATE INDEX ""auth_group_permissions_group_id_b120cbf9"" ON ""auth_group_permissions"" (""group_id"")"
index,auth_group_permissions_permission_id_84c5c92e,auth_group_permissions,18,"CREATE INDEX ""auth_group_permissions_permission_id_84c5c92e"" ON ""auth_group_permissions"" (""permission_id"")"
index,auth_user_groups_user_id_group_id_94350c0c_uniq,auth_user_groups,19,"CREATE UNIQUE INDEX ""auth_user_groups_user_id_group_id_94350c0c_uniq"" ON ""auth_user_groups"" (""user_id"", ""group_id"")"
index,auth_user_groups_user_id_6a12ed8b,auth_user_groups,20,"CREATE INDEX ""auth_user_groups_user_id_6a12ed8b"" ON ""auth_user_groups"" (""user_id"")"
index,auth_user_groups_group_id_97559544,auth_user_groups,22,"CREATE INDEX ""auth_user_groups_group_id_97559544"" ON ""auth_user_groups"" (""group_id"")"
index,auth_user_user_permissions_user_id_permission_id_14a6b632_uniq,auth_user_user_permissions,24,"CREATE UNIQUE INDEX ""auth_user_user_permissions_user_id_permission_id_14a6b632_uniq"" ON ""auth_user_user_permissions"" (""user_id"", ""permission_id"")"
index,auth_user_user_permissions_user_id_a95ead1b,auth_user_user_permissions,25,"CREATE INDEX ""auth_user_user_permissions_user_id_a95ead1b"" ON ""auth_user_user_permissions"" (""user_id"")"
index,auth_user_user_permissions_permission_id_1fbb5f2c,auth_user_user_permissions,26,"CREATE INDEX ""auth_user_user_permissions_permission_id_1fbb5f2c"" ON ""auth_user_user_permissions"" (""permission_id"")"
table,django_admin_log,django_admin_log,29,"CREATE TABLE ""django_admin_log"" (""id"" integer NOT NULL PRIMARY KEY AUTOINCREMENT, ""action_time"" datetime NOT NULL, ""object_id"" text NULL, ""object_repr"" varchar(200) NOT NULL, ""change_message"" text NOT NULL, ""content_type_id"" integer NULL REFERENCES ""django_content_type"" (""id"") DEFERRABLE INITIALLY DEFERRED, ""user_id"" integer NOT NULL REFERENCES ""auth_user"" (""id"") DEFERRABLE INITIALLY DEFERRED, ""action_flag"" smallint unsigned NOT NULL CHECK (""action_flag"" >= 0))"
index,django_admin_log_content_type_id_c4bce8eb,django_admin_log,27,"CREATE INDEX ""django_admin_log_content_type_id_c4bce8eb"" ON ""django_admin_log"" (""content_type_id"")"
index,django_admin_log_user_id_c564eba6,django_admin_log,28,"CREATE INDEX ""django_admin_log_user_id_c564eba6"" ON ""django_admin_log"" (""user_id"")"
table,assessments_category,assessments_category,31,"CREATE TABLE ""assessments_category"" (""id"" integer NOT NULL PRIMARY KEY AUTOINCREMENT, ""name"" varchar(100) NOT NULL)"
table,assessments_area,assessments_area,44,"CREATE TABLE ""assessments_area"" (""id"" integer NOT NULL PRIMARY KEY AUTOINCREMENT, ""name"" varchar(100) NOT NULL)"
table,assessments_grade,assessments_grade,45,"CREATE TABLE ""assessments_grade"" (""id"" integer NOT NULL PRIMARY KEY AUTOINCREMENT, ""name"" varchar(100) NOT NULL, ""score"" integer unsigned NOT NULL CHECK (""score"" >= 0))"
table,assessments_assessmenttemplate,assessments_assessmenttemplate,42,"CREATE TABLE ""assessments_assessmenttemplate"" (""id"" integer NOT NULL PRIMARY KEY AUTOINCREMENT, ""created"" datetime NOT NULL, ""name"" varchar(100) NOT NULL, ""version"" real NOT NULL, CONSTRAINT ""assessment template"" UNIQUE (""name"", ""version""))"
index,sqlite_autoindex_assessments_assessmenttemplate_1,assessments_assessmenttemplate,43,
table,assessments_answer,assessments_answer,34,"CREATE TABLE ""assessments_answer"" (""id"" integer NOT NULL PRIMARY KEY AUTOINCREMENT, ""description"" text NOT NULL, ""grade_id"" integer NOT NULL REFERENCES ""assessments_grade"" (""id"") DEFERRABLE INITIALLY DEFERRED, ""question_id"" integer NOT NULL REFERENCES ""assessments_question"" (""id"") DEFERRABLE INITIALLY DEFERRED)"
index,assessments_answer_grade_id_623e18b1,assessments_answer,32,"CREATE INDEX ""assessments_answer_grade_id_623e18b1"" ON ""assessments_answer"" (""grade_id"")"
index,assessments_answer_question_id_39d9d14d,assessments_answer,35,"CREATE INDEX ""assessments_answer_question_id_39d9d14d"" ON ""assessments_answer"" (""question_id"")"
table,assessments_question,assessments_question,38,"CREATE TABLE ""assessments_question"" (""id"" integer NOT NULL PRIMARY KEY AUTOINCREMENT, ""weight"" real NOT NULL, ""description"" text NOT NULL, ""category_id"" integer NOT NULL REFERENCES ""assessments_category"" (""id"") DEFERRABLE INITIALLY DEFERRED)"
index,assessments_question_category_id_64b4a3a3,assessments_question,30,"CREATE INDEX ""assessments_question_category_id_64b4a3a3"" ON ""assessments_question"" (""category_id"")"
table,assessments_assessment_answers,assessments_assessment_answers,46,"CREATE TABLE ""assessments_assessment_answers"" (""id"" integer NOT NULL PRIMARY KEY AUTOINCREMENT, ""assessment_id"" integer NOT NULL REFERENCES ""assessments_assessment"" (""id"") DEFERRABLE INITIALLY DEFERRED, ""answer_id"" integer NOT NULL REFERENCES ""assessments_answer"" (""id"") DEFERRABLE INITIALLY DEFERRED)"
index,assessments_assessment_answers_assessment_id_answer_id_8c79beb8_uniq,assessments_assessment_answers,48,"CREATE UNIQUE INDEX ""assessments_assessment_answers_assessment_id_answer_id_8c79beb8_uniq"" ON ""assessments_assessment_answers"" (""assessment_id"", ""answer_id"")"
index,assessments_assessment_answers_assessment_id_13ab18d9,assessments_assessment_answers,49,"CREATE INDEX ""assessments_assessment_answers_assessment_id_13ab18d9"" ON ""assessments_assessment_answers"" (""assessment_id"")"
index,assessments_assessment_answers_answer_id_5684042b,assessments_assessment_answers,50,"CREATE INDEX ""assessments_assessment_answers_answer_id_5684042b"" ON ""assessments_assessment_answers"" (""answer_id"")"
table,assessments_assessment,assessments_assessment,47,"CREATE TABLE ""assessments_assessment"" (""id"" integer NOT NULL PRIMARY KEY AUTOINCREMENT, ""assessment_template_id"" integer NOT NULL REFERENCES ""assessments_assessmenttemplate"" (""id"") DEFERRABLE INITIALLY DEFERRED, ""name"" varchar(100) NOT NULL, ""created"" datetime NOT NULL)"
index,assessments_assessment_assessment_template_id_5463494e,assessments_assessment,40,"CREATE INDEX ""assessments_assessment_assessment_template_id_5463494e"" ON ""assessments_assessment"" (""assessment_template_id"")"
table,django_content_type,django_content_type,5,"CREATE TABLE ""django_content_type"" (""id"" integer NOT NULL PRIMARY KEY AUTOINCREMENT, ""app_label"" varchar(100) NOT NULL, ""model"" varchar(100) NOT NULL)"
index,django_content_type_app_label_model_76bd3d3b_uniq,django_content_type,4,"CREATE UNIQUE INDEX ""django_content_type_app_label_model_76bd3d3b_uniq"" ON ""django_content_type"" (""app_label"", ""model"")"
table,auth_permission,auth_permission,41,"CREATE TABLE ""auth_permission"" (""id"" integer NOT NULL PRIMARY KEY AUTOINCREMENT, ""content_type_id"" integer NOT NULL REFERENCES ""django_content_type"" (""id"") DEFERRABLE INITIALLY DEFERRED, ""codename"" varchar(100) NOT NULL, ""name"" varchar(255) NOT NULL)"
index,auth_permission_content_type_id_codename_01ab375a_uniq,auth_permission,6,"CREATE UNIQUE INDEX ""auth_permission_content_type_id_codename_01ab375a_uniq"" ON ""auth_permission"" (""content_type_id"", ""codename"")"
index,auth_permission_content_type_id_2f476e4b,auth_permission,14,"CREATE INDEX ""auth_permission_content_type_id_2f476e4b"" ON ""auth_permission"" (""content_type_id"")"
table,auth_group,auth_group,15,"CREATE TABLE ""auth_group"" (""id"" integer NOT NULL PRIMARY KEY AUTOINCREMENT, ""name"" varchar(150) NOT NULL UNIQUE)"
index,sqlite_autoindex_auth_group_1,auth_group,52,
table,auth_user,auth_user,7,"CREATE TABLE ""auth_user"" (""id"" integer NOT NULL PRIMARY KEY AUTOINCREMENT, ""password"" varchar(128) NOT NULL, ""last_login"" datetime NULL, ""is_superuser"" bool NOT NULL, ""username"" varchar(150) NOT NULL UNIQUE, ""last_name"" varchar(150) NOT NULL, ""email"" varchar(254) NOT NULL, ""is_staff"" bool NOT NULL, ""is_active"" bool NOT NULL, ""date_joined"" datetime NOT NULL, ""first_name"" varchar(150) NOT NULL)"
index,sqlite_autoindex_auth_user_1,auth_user,8,
table,django_session,django_session,10,"CREATE TABLE ""django_session"" (""session_key"" varchar(40) NOT NULL PRIMARY KEY, ""session_data"" text NOT NULL, ""expire_date"" datetime NOT NULL)"
index,sqlite_autoindex_django_session_1,django_session,11,
index,django_session_expire_date_a5c62663,django_session,53,"CREATE INDEX ""django_session_expire_date_a5c62663"" ON ""django_session"" (""expire_date"")"
table,assessments_assessmenttemplate_categories,assessments_assessmenttemplate_categories,51,"CREATE TABLE ""assessments_assessmenttemplate_categories"" (""id"" integer NOT NULL PRIMARY KEY AUTOINCREMENT, ""assessmenttemplate_id"" integer NOT NULL REFERENCES ""assessments_assessmenttemplate"" (""id"") DEFERRABLE INITIALLY DEFERRED, ""category_id"" integer NOT NULL REFERENCES ""assessments_category"" (""id"") DEFERRABLE INITIALLY DEFERRED)"
index,assessments_assessmenttemplate_categories_assessmenttemplate_id_category_id_6f76465a_uniq,assessments_assessmenttemplate_categories,33,"CREATE UNIQUE INDEX ""assessments_assessmenttemplate_categories_assessmenttemplate_id_category_id_6f76465a_uniq"" ON ""assessments_assessmenttemplate_categories"" (""assessmenttemplate_id"", ""category_id"")"
index,assessments_assessmenttemplate_categories_assessmenttemplate_id_ce40cde4,assessments_assessmenttemplate_categories,36,"CREATE INDEX ""assessments_assessmenttemplate_categories_assessmenttemplate_id_ce40cde4"" ON ""assessments_assessmenttemplate_categories"" (""assessmenttemplate_id"")"
index,assessments_assessmenttemplate_categories_category_id_c2dc39cc,assessments_assessmenttemplate_categories,39,"CREATE INDEX ""assessments_assessmenttemplate_categories_category_id_c2dc39cc"" ON ""assessments_assessmenttemplate_categories"" (""category_id"")"
